{
  "name": "agentCashInstance",
  "plural": "agentCashInstances",
  "base": "PersistedModel",
  "idInjection": true,
  "options": {
    "validateUpsert": true
  },
  "mixins": {
    "TimeStamp": {
      "required": false,
      "validateUpsert": true
    }
  },
  "properties": {
    "amount": {
      "type": "number",
      "required": true,
      "postgresql": {
        "dataType": "numeric"
      },
      "default": 0
    },
    "dueDatetime": {
      "type": "date"
    },
    "isSettled": {
      "type": "boolean",
      "required": true,
      "default": false
    },
    "settledAt": {
      "type": "date"
    }
  },
  "validations": [],
  "relations": {
    "agent": {
      "type": "belongsTo",
      "model": "agent",
      "foreignKey": "agentId"
    },
    "type": {
      "type": "belongsTo",
      "model": "agentCashType",
      "foreignKey": "typeId"
    }
  },
  "acls": [
    {
      "accessType": "*",
      "principalType": "ROLE",
      "principalId": "$unauthenticated",
      "permission": "DENY"
    }
  ],
  "methods": {}
}
