{
  "name": "partnerFeeType",
  "plural": "partnerFeeTypes",
  "base": "PersistedModel",
  "idInjection": true,
  "options": {
    "validateUpsert": true
  },
  "properties": {
    "id": {
      "type": "number",
      "id": true,
      "required": true
    },
    "name": {
      "type": "string",
      "required": true
    }
  },
  "validations": [],
  "relations": {
    "discounts": {
      "type": "hasMany",
      "model": "partnerDiscount",
      "foreignKey": "feeTypeId"
    },
    "partners": {
      "type": "hasMany",
      "model": "partner",
      "foreignKey": "codFeeTypeId"
    }
  },
  "acls": [
    {
      "accessType": "*",
      "principalType": "ROLE",
      "principalId": "$unauthenticated",
      "permission": "DENY"
    }
  ],
  "methods": {}
}
